{
  "name": "billmanager-devwas-01.com2us.kr",
  "chef_environment": "production",
  "run_list": [
  "role[DEFAULT]",
  "role[L_TCLOUD]",
  "role[S_BILLMANAGER]",
  "role[D_BS]",
  "role[U_DISABLE]"
]
,
  "normal": {
    "tags": [

    ]
  }
}
