{
  "name": "hiveitem-was-02.com2us.kr",
  "chef_environment": "platform",
  "run_list": [
  "role[BASIC]",
  "role[HIVEITEM]"
]
,
  "normal": {
    "tags": [
      "was",
      "hiveitem"
    ],
    "location": "ktidc",
    "service": "hiveitem"
  }
}
