{
  "name": "shive-memcache-02.com2us.kr",
  "chef_environment": "platform",
  "run_list": [
  "role[BASIC]",
  "role[SHIVE]"
]
,
  "normal": {
    "tags": [
      "etc",
      "shive"
    ],
    "location": "ktidc",
    "service": "shive"
  }
}
