{
  "name": "hiveauthv4-sandboxcache-01.com2us.kr",
  "chef_environment": "platform",
  "run_list": [
  "role[BASIC]",
  "role[SANDBOX]",
  "recipe[pdns]"
]
,
  "normal": {
    "tags": [
      "etc",
      "sandbox"
    ],
    "location": "gcloudp",
    "service": "sandbox",
    "gcp-packages": {
      "install": [
        "memcached",
        "memcached-devel",
        "td-agent",
        "jdk1.8.0_45",
        "git",
        "redis"
      ]
    },
    "users": [
      "eunsik",
      "sanggon",
      "seongjunkim",
      "kdbae",
      "tallmang",
      "yechanpark",
      "jmyang",
      "jaykim",
      "junhogcp",
      "kenshin"
    ]
  }
}
