{
  "name": "hiveadult-sandboxwas-01.com2us.kr",
  "chef_environment": "platform",
  "run_list": [
  "role[BASIC]",
  "role[SANDBOX]",
  "recipe[pdns]"
]
,
  "normal": {
    "tags": [
      "was"
    ],
    "location": "gcloudp",
    "service": "sandbox",
    "users": [
      "com2usadmin",
      "jhkimb",
      "kimkangil",
      "jmyang",
      "kenshin"
    ],
    "packages": {
      "install": [
        "GeoIP",
        "geoipupdate"
      ]
    },
    "openssh": {
      "allow_dev": [
        "112.175.46.55"
      ]
    }
  }
}
