{
  "name": "hiveauthv4-sandboxwas-01.com2us.kr",
  "chef_environment": "platform",
  "run_list": [
  "role[BASIC]",
  "role[SANDBOX]",
  "recipe[nginx2017]",
  "recipe[php-fpm2016]",
  "recipe[pdns]"
]
,
  "normal": {
    "tags": [
      "was",
      "sandbox"
    ],
    "location": "gcloudp",
    "service": "sandbox",
    "repo": {
      "php54": true
    },
    "users": [
      "eunsik",
      "sanggon",
      "seongjunkim",
      "com2usadmin",
      "kdbae",
      "tallmang",
      "yechanpark",
      "jaykim",
      "jmyang",
      "junhogcp",
      "kenshin",
      "onlykda"
    ],
    "openssh": {
      "allow_dev": [
        "112.175.46.55"
      ]
    },
    "packages": {
      "install": [
        "git",
        "td-agent",
        "geoip"
      ]
    },
    "php": {
      "packages": [
        "php-mysqlnd",
        "php-mssql"
      ],
      "php-pecl": [
        "php-pecl-memcache",
        "php-pecl-memcached"
      ],
      "save_handler": "memcached",
      "save_path": "112.175.143.42:11211"
    }
  }
}
