{
  "name": "inquiry-sandboxwas-01.com2us.kr",
  "chef_environment": "platform",
  "run_list": [
  "role[BASIC]",
  "role[SANDBOX]",
  "recipe[pdns]"
]
,
  "normal": {
    "tags": [
      "nondb"
    ],
    "location": "gcloudp",
    "service": "sandbox",
    "users": [
      "sundong",
      "midtics",
      "nbkjy",
      "sungpyolee",
      "yujin",
      "sdkang",
      "sckim"
    ],
    "packages": {
      "install": [
        "git"
      ]
    },
    "openssh": {
      "allow_dev": [
        "112.175.143.100"
      ]
    }
  }
}
