{
  "name": "lebibillingapp-sandboxwas-01.com2us.kr",
  "chef_environment": "platform",
  "run_list": [
  "role[BASIC]",
  "role[SANDBOX]",
  "recipe[pdns]"
]
,
  "normal": {
    "tags": [
      "was"
    ],
    "location": "gcloudp",
    "service": "sandbox",
    "users": [
      "munjaeho",
      "com2usadmin",
      "jhkimb",
      "kimkangil",
      "jmyang",
      "kenshin",
      "lebiuser"
    ]
  }
}
