{
  "name": "hivefriendpush-was-01.com2us.kr",
  "chef_environment": "platform",
  "run_list": [
  "role[BASIC]",
  "role[HIVEFRIENDPUSH]"
]
,
  "normal": {
    "tags": [
      "repo",
      "hivefriendpush",
      "was"
    ],
    "location": "ktidc"
  }
}
