{
  "name": "hiveitem-rabbitmq-02.com2us.kr",
  "chef_environment": "production",
  "run_list": [
  "role[DEFAULT]",
  "role[L_PCLOUD]",
  "role[S_HIVEITEM]",
  "role[D_PS2]",
  "role[U_DISABLE]"
]
,
  "normal": {
    "tags": [

    ]
  }
}
