{
  "name": "companysite-was-02.com2us.kr",
  "chef_environment": "production",
  "run_list": [
  "role[DEFAULT]",
  "role[L_AMAZON]",
  "role[S_COMPANYSITE]",
  "role[D_WD]"
]
,
  "normal": {
    "tags": [

    ]
  }
}
