{
  "name": "companysite-db-012.com2us.kr",
  "chef_environment": "production",
  "run_list": [
  "role[DEFAULT]",
  "role[L_AMAZON]",
  "role[S_COMPANYSITE]",
  "role[D_DBA]",
  "role[U_DBMY]"
]
,
  "normal": {
    "tags": [

    ]
  }
}
