{
  "name": "mercury-was-09.com2us.kr",
  "chef_environment": "platform",
  "run_list": [
  "role[BASIC]",
  "role[MERCURY]"
]
,
  "normal": {
    "tags": [
      "was",
      "mercury"
    ],
    "location": "ktidc",
    "service": "mercury"
  }
}
