{
  "name": "manager-was-02.com2us.kr",
  "chef_environment": "production",
  "run_list": [
  "role[DEFAULT]",
  "role[L_KTIDC]",
  "role[S_MANAGER]",
  "role[D_BO]",
  "role[U_DISABLE]"
]
,
  "normal": {
    "tags": [

    ]
  }
}
