{
  "name": "pmanager-was-01.com2us.kr",
  "chef_environment": "platform",
  "run_list": [
  "role[BASIC]",
  "role[MANAGER]"
]
,
  "normal": {
    "tags": [
      "was",
      "manager"
    ],
    "location": "gcloudp",
    "service": "manager"
  }
}
