{
  "name": "dbarepo-was-01.com2us.kr",
  "chef_environment": "dba_stable",
  "run_list": [
  "role[BASIC]",
  "role[DBA]"
]
,
  "normal": {
    "tags": [
      "was",
      "dba"
    ],
    "location": "gcloudp",
    "service": "dba"
  }
}
