{
  "name": "hiveses-db-011.com2us.kr",
  "chef_environment": "dba_stable",
  "run_list": [
  "role[BASIC]",
  "role[DBA]"
]
,
  "normal": {
    "tags": [
      "db",
      "dba"
    ],
    "location": "ktidc",
    "service": "dba"
  }
}
