{
  "name": "ims-db-041.com2us.kr",
  "chef_environment": "platform",
  "run_list": [
  "role[BASIC]",
  "role[DBA]"
]
,
  "normal": {
    "tags": [
      "db",
      "dba"
    ],
    "location": "gcloudp",
    "service": "dba",
    "openssh": {
      "allow_dba": [
        "172.20.1.29"
      ]
    }
  }
}
