{
  "name": "newsbanner-logdb-013.com2us.kr",
  "chef_environment": "dba_stable",
  "run_list": [
  "role[BASIC]",
  "role[DBA]"
]
,
  "normal": {
    "tags": [
      "db",
      "dba"
    ],
    "location": "gcloud",
    "service": "dba",
    "openssh": {
      "allow_dev": [
        "54.147.55.162"
      ]
    }
  }
}
