{
  "name": "zabbixproxydba-was-01.com2us.kr",
  "chef_environment": "platform",
  "run_list": [
  "role[BASIC]",
  "role[DBA]"
]
,
  "normal": {
    "tags": [
      "was",
      "dba"
    ],
    "location": "gcloud",
    "service": "dba"
  }
}
