{
  "name": "mercury-devwas-01.com2us.kr",
  "chef_environment": "production",
  "run_list": [
  "role[DEFAULT]",
  "role[L_TCLOUD]",
  "role[S_MERCURY]",
  "role[D_PS2]",
  "role[U_WASNPF]"
]
,
  "normal": {
    "tags": [

    ]
  }
}
