{
  "name": "hiveiap-was-07.com2us.kr",
  "chef_environment": "platform",
  "run_list": [
  "role[BASIC]",
  "role[HIVEIAP]"
]
,
  "normal": {
    "tags": [
      "was",
      "hiveiap"
    ],
    "location": "ktidc",
    "service": "hiveiap"
  }
}
