{
  "name": "hiveauthv4mbship-was-01.com2us.kr",
  "chef_environment": "platform",
  "run_list": [
  "role[BASIC]",
  "role[HIVEAUTHV4MBSHIP]"
]
,
  "normal": {
    "tags": [
      "was",
      "hiveauthv4mbship"
    ],
    "location": "gcloudp",
    "service": "hiveauthv4mbship"
  }
}
