{
  "name": "idcrepo-server-01.com2us.kr",
  "chef_environment": "production",
  "run_list": [
  "role[DEFAULT]",
  "role[L_KTIDC]",
  "role[S_REPO]",
  "role[D_SYSTEM]",
  "role[U_DISABLE]"
]
,
  "normal": {
    "tags": [

    ]
  }
}
