{
  "name": "hivepromotion-was-14.com2us.kr",
  "chef_environment": "platform",
  "run_list": [
  "role[BASIC]",
  "role[HIVEPROMOTION]"
]
,
  "normal": {
    "tags": [
      "was",
      "hivepromotion"
    ],
    "location": "gcloudp",
    "service": "hivepromotion"
  }
}
