{
  "name": "lebibilling-was-02.com2us.kr",
  "chef_environment": "platform",
  "run_list": [
  "role[BASIC]",
  "role[LEBIBILLING]"
]
,
  "normal": {
    "tags": [
      "was",
      "lebibilling"
    ],
    "location": "ktidc",
    "service": "lebibilling"
  }
}
