{
  "name": "hiveauthv4-fluentd-02.com2us.kr",
  "chef_environment": "platform",
  "run_list": [
  "role[BASIC]",
  "role[HIVEAUTHV4LOG]"
]
,
  "normal": {
    "tags": [
      "was",
      "hiveauthv4log"
    ],
    "location": "gcloudp",
    "service": "hiveauthv4",
    "packages": {
      "install": [
        "git"
      ]
    }
  }
}
