{
  "name": "lebibillingappcn-was-01.com2us.kr",
  "chef_environment": "platform",
  "run_list": [
  "role[BASIC]",
  "role[LEBIBILLINGCN]",
  "recipe[pdns]"
]
,
  "normal": {
    "tags": [
      "was",
      "lebibillingcn"
    ],
    "location": "aliyun",
    "service": "lebibillingcn"
  }
}
