{
  "name": "hiveauthv4mbshipm-was-03.com2us.kr",
  "chef_environment": "platform",
  "run_list": [
  "role[BASIC]",
  "role[HIVEAUTHV4MBSHIPM]"
]
,
  "normal": {
    "tags": [
      "was",
      "hiveauthv4mbshipm"
    ],
    "location": "gcloudp",
    "service": "hiveauthv4mbshipm"
  }
}
