{
  "name": "gcpipl-db-014.com2us.kr",
  "chef_environment": "production",
  "run_list": [
  "role[DEFAULT]",
  "role[L_BZONE]",
  "role[S_DBA]",
  "role[D_DBA]",
  "role[U_DBMY]"
]
,
  "normal": {
    "tags": [

    ]
  }
}
