{
  "name": "stepbystep-sandboxdb-011.com2us.kr",
  "chef_environment": "production",
  "run_list": [
  "role[DEFAULT]",
  "role[L_PCLOUD]",
  "role[S_DBA]",
  "role[D_DBA]"
]
,
  "normal": {
    "tags": [

    ]
  }
}
