{
  "name": "hiveadult-was-02.com2us.kr",
  "chef_environment": "platform",
  "run_list": [
  "role[BASIC]",
  "role[HIVEADULT]",
  "recipe[pdns]"
]
,
  "normal": {
    "tags": [
      "was",
      "hiveadult"
    ],
    "location": "ktidc",
    "service": "hiveadult"
  }
}
