{
  "name": "cihios-was-02.com2us.kr",
  "chef_environment": "unstable",
  "run_list": [
  "role[BASIC]",
  "role[GAMEVIL]",
  "recipe[php-fpm2016]"
]
,
  "normal": {
    "tags": [
      "was",
      "gamevil"
    ],
    "users": [
      "jmyang",
      "jhkimb"
    ],
    "location": "gcloud",
    "service": "gamevil",
    "packages": {
      "install": [
        "php",
        "httpd"
      ]
    },
    "php": {
      "packages": [
        "php-mysql"
      ],
      "php-pecl": [
        "php-pecl-memcache"
      ]
    }
  }
}
