{
  "name": "backoffice-was-02.com2us.kr",
  "chef_environment": "production",
  "run_list": [
  "role[DEFAULT]",
  "role[L_PCLOUD]",
  "role[S_BACKOFFICE]",
  "role[D_PS1]",
  "role[U_DISABLE]"
]
,
  "normal": {

  }
}
