{
  "name": "global-staging-01.com2us.kr",
  "chef_environment": "platform",
  "run_list": [
  "role[BASIC]",
  "role[FORUM]"
]
,
  "normal": {
    "tags": [
      "repo",
      "forum",
      "was"
    ],
    "location": "gcloud"
  }
}
