{
  "name": "hiveanalyticslog-server-05.com2us.kr",
  "chef_environment": "platform",
  "run_list": [
  "role[BASIC]",
  "role[HIVEANALYTICSLOG]",
  "recipe[pdns]"
]
,
  "normal": {
    "tags": [
      "etc",
      "hiveanalyticslog"
    ],
    "location": "gcloudp",
    "service": "hiveanalyticslog",
    "packages": {
      "install": [
        "td-agent"
      ]
    }
  }
}
