{
  "name": "cdn-logstash-01.com2us.kr",
  "chef_environment": "production",
  "run_list": [
  "role[DEFAULT]",
  "role[L_PCLOUD]",
  "role[S_CDN]",
  "role[D_SYSTEM]",
  "role[U_DISABLE]"
]
,
  "normal": {
    "tags": [

    ]
  }
}
