{
  "name": "bojenkins-was-01.com2us.kr",
  "chef_environment": "platform",
  "run_list": [
  "role[BASIC]",
  "role[BOJENKINS]"
]
,
  "normal": {
    "tags": [
      "was",
      "bojenkins"
    ],
    "location": "gcloudp",
    "service": "bojenkins",
    "packages": {
      "install": [
        "jdk1.8.0_45"
      ]
    }
  }
}
