{
  "name": "hivesespush-was-05.com2us.kr",
  "chef_environment": "platform",
  "run_list": [
  "role[BASIC]",
  "role[HIVESES]",
  "recipe[pdns]"
]
,
  "normal": {
    "tags": [
      "was",
      "hiveses"
    ],
    "location": "gcloudp",
    "service": "hiveses",
    "packages": {
      "install": [
        "jdk1.8.0_45",
        "supervisor"
      ]
    },
    "openssh": {
      "allow_dev": [
        "10.29.100.11"
      ]
    }
  }
}
