{
  "name": "salestat-was-01.com2us.kr",
  "chef_environment": "platform",
  "run_list": [
  "role[BASIC]",
  "role[SALESTAT]",
  "recipe[nginx2017]",
  "recipe[php-fpm2016]"
]
,
  "normal": {
    "tags": [
      "was",
      "salestat"
    ],
    "location": "gcloudp",
    "service": "salestat",
    "repo": {
      "php54": true
    },
    "php": {
      "packages": [
        "php-mssql"
      ]
    }
  }
}
