{
  "name": "circlecpi-was-04.com2us.kr",
  "chef_environment": "platform",
  "run_list": [
  "role[BASIC]",
  "role[CRICLECPI]"
]
,
  "normal": {
    "tags": [
      "was",
      "criclecpi"
    ],
    "location": "amazon",
    "service": "criclecpi"
  }
}
