{
  "name": "platform-was-01.com2us.kr",
  "chef_environment": "platform",
  "run_list": [
  "role[BASIC]",
  "role[PLATFORM]",
  "recipe[pdns]"
]
,
  "normal": {
    "tags": [
      "was",
      "platform"
    ],
    "location": "ktidc",
    "service": "platform",
    "zabbix-agent": {
      "server": [
        "nms1.com2us.net",
        "nms2.com2us.net",
        "183.111.164.40"
      ]
    }
  }
}
