{
  "name": "hivepromotion-devdb-011.com2us.kr",
  "chef_environment": "production",
  "run_list": [
  "role[DEFAULT]",
  "role[L_TCLOUD]",
  "role[S_HIVEPROMOTION]",
  "role[D_DBA]",
  "role[U_DBMY]"
]
,
  "normal": {
    "tags": [

    ]
  }
}
