{
  "name": "pmspoller-server-01.com2us.kr",
  "chef_environment": "platform",
  "run_list": [
  "role[BASIC]",
  "role[SYSTEM]"
]
,
  "normal": {
    "tags": [
      "server",
      "system"
    ],
    "location": "gcloudp",
    "service": "system"
  }
}
