{
  "name": "hivefriend-was-03.com2us.kr",
  "chef_environment": "platform",
  "run_list": [
  "role[BASIC]",
  "role[HIVEFRIEND]",
  "recipe[pdns]"
]
,
  "normal": {
    "tags": [
      "was",
      "hivefriend"
    ],
    "location": "ktidc",
    "service": "hivefriend"
  }
}
