{
  "name": "index-was-01.com2us.kr",
  "chef_environment": "platform",
  "run_list": [
  "role[BASIC]",
  "role[BACKOFFICE]",
  "recipe[pdns]"
]
,
  "normal": {
    "tags": [
      "was",
      "backoffice"
    ],
    "location": "ktidc",
    "service": "backoffice",
    "users": [
      "george",
      "munjaeho",
      "com2usadmin",
      "sgkim",
      "nbkjy",
      "eunsik",
      "kijung3"
    ],
    "zabbix-agent": {
      "server": [
        "nms1.com2us.net",
        "nms2.com2us.net",
        "183.111.164.40"
      ]
    }
  }
}
