{
  "name": "zadara-backup-03.com2us.kr",
  "chef_environment": "production",
  "run_list": [
  "role[DEFAULT]",
  "role[L_UCLOUD]",
  "role[S_ZADARA]",
  "role[D_SYSTEM]"
]
,
  "normal": {
    "tags": [

    ]
  }
}
