{
  "name": "hiveauthv4-was-47.com2us.kr",
  "chef_environment": "platform",
  "run_list": [
  "role[BASIC]",
  "role[HIVEAUTHV4]"
]
,
  "normal": {
    "tags": [
      "was",
      "hiveauthv4"
    ],
    "location": "gcloudp",
    "service": "hiveauthv4"
  }
}
