{
  "name": "usweb-staging-01.com2us.kr",
  "chef_environment": "production",
  "run_list": [
  "role[DEFAULT]",
  "role[L_BZONE]",
  "role[S_USWEB]",
  "role[D_SYSTEM]"
]
,
  "normal": {
    "tags": [

    ]
  }
}
