{
  "name": "shive-memcache-09.com2us.kr",
  "chef_environment": "production",
  "run_list": [
  "role[DEFAULT]",
  "role[L_PCLOUD]",
  "role[S_SHIVE]",
  "role[D_PS1]",
  "role[U_DISABLE]"
]
,
  "normal": {
    "tags": [

    ]
  }
}
