{
  "name": "hiveanalyticslog-migration-04.com2us.kr",
  "chef_environment": "production",
  "run_list": [
  "role[DEFAULT]",
  "role[L_PCLOUD]",
  "role[S_HIVEANALYTICSLOG]",
  "role[D_DW]",
  "role[D_DBA]",
  "role[U_DISABLE]"
]
,
  "normal": {
    "tags": [

    ]
  }
}
