{
  "name": "hive-was-01.com2us.kr",
  "chef_environment": "platform",
  "run_list": [
  "role[BASIC]",
  "role[HIVE]",
  "recipe[logrotate@0.1.2]",
  "recipe[pdns]"
]
,
  "normal": {
    "tags": [
      "hive",
      "was"
    ],
    "location": "ktidc",
    "service": "hive",
    "packages": {
      "install": [
        "redhat-lsb-core",
        "git"
      ]
    }
  }
}
