{
  "name": "hiveappcenter-testdb-01.com2us.kr",
  "chef_environment": "production",
  "run_list": [
  "role[DEFAULT]",
  "role[L_TCLOUD]",
  "role[S_HIVEAPPCENTER]",
  "role[D_PS1]",
  "role[U_DISABLE]"
]
,
  "normal": {
    "tags": [

    ]
  }
}
