{
  "name": "pushapi-was-06.com2us.kr",
  "chef_environment": "platform",
  "run_list": [
  "role[BASIC]",
  "role[PUSHAPI]",
  "recipe[php-fpm2016]"
]
,
  "normal": {
    "tags": [
      "was",
      "pushapi"
    ],
    "location": "ktidc",
    "service": "pushapi"
  }
}
