{
  "name": "hiveauthv4profileapi-was-17.com2us.kr",
  "chef_environment": "platform",
  "run_list": [
  "role[BASIC]",
  "role[HIVEAUTHV4PROFILEAPI]"
]
,
  "normal": {
    "tags": [
      "was",
      "hiveauthv4profileapi"
    ],
    "location": "gcloudp",
    "service": "hiveauthv4profileapi"
  }
}
