{
  "name": "terms-staging-01.com2us.kr",
  "chef_environment": "platform",
  "run_list": [
  "role[BASIC]",
  "role[TERMS]"
]
,
  "normal": {
    "tags": [
      "was",
      "terms"
    ],
    "location": "ktidc",
    "service": "terms"
  }
}
