{
  "name": "logincenter-was-03.com2us.kr",
  "chef_environment": "platform",
  "run_list": [
  "role[BASIC]",
  "role[LOGINCENTER]",
  "recipe[pdns]"
]
,
  "normal": {
    "tags": [
      "was",
      "logincenter"
    ],
    "location": "ktidc",
    "service": "logincenter"
  }
}
